<?xml version="1.0" encoding="UTF-8" standalone="no"?>
<svg
   version="1.1"
   width="30.000006"
   height="29.986166"
   id="svg3854"
   sodipodi:docname="question_mark.svg"
   inkscape:version="1.1.2 (b8e25be833, 2022-02-05)"
   xmlns:inkscape="http://www.inkscape.org/namespaces/inkscape"
   xmlns:sodipodi="http://sodipodi.sourceforge.net/DTD/sodipodi-0.dtd"
   xmlns:xlink="http://www.w3.org/1999/xlink"
   xmlns="http://www.w3.org/2000/svg"
   xmlns:svg="http://www.w3.org/2000/svg"
   xmlns:rdf="http://www.w3.org/1999/02/22-rdf-syntax-ns#"
   xmlns:cc="http://creativecommons.org/ns#"
   xmlns:dc="http://purl.org/dc/elements/1.1/">
  <sodipodi:namedview
     pagecolor="#ffffff"
     bordercolor="#666666"
     borderopacity="1"
     objecttolerance="10"
     gridtolerance="10"
     guidetolerance="10"
     inkscape:pageopacity="0"
     inkscape:pageshadow="2"
     inkscape:window-width="2400"
     inkscape:window-height="1261"
     id="namedview19"
     showgrid="false"
     fit-margin-top="0"
     fit-margin-left="0"
     fit-margin-right="0"
     fit-margin-bottom="0"
     inkscape:zoom="10.658939"
     inkscape:cx="9.1472519"
     inkscape:cy="26.597394"
     inkscape:window-x="2391"
     inkscape:window-y="-9"
     inkscape:window-maximized="1"
     inkscape:current-layer="svg3854"
     inkscape:pagecheckerboard="0" />
  <defs
     id="defs3856">
    <linearGradient
       x1="117.05355"
       y1="83.525589"
       x2="116.83034"
       y2="62.245369"
       id="linearGradient3852"
       xlink:href="#linearGradient3766"
       gradientUnits="userSpaceOnUse" />
    <linearGradient
       id="linearGradient3766">
      <stop
         id="stop3768"
         style="stop-color:#0645ad;stop-opacity:1"
         offset="0" />
      <stop
         id="stop3770"
         style="stop-color:#398fea;stop-opacity:1"
         offset="1" />
    </linearGradient>
    <linearGradient
       x1="117.05355"
       y1="83.525589"
       x2="116.83034"
       y2="62.245369"
       id="linearGradient3823"
       xlink:href="#linearGradient3766"
       gradientUnits="userSpaceOnUse" />
    <linearGradient
       id="linearGradient3877">
      <stop
         id="stop3879"
         style="stop-color:#0755d4;stop-opacity:1"
         offset="0" />
      <stop
         id="stop3881"
         style="stop-color:#39b2ea;stop-opacity:1"
         offset="1" />
    </linearGradient>
    <linearGradient
       x1="117.05355"
       y1="83.525589"
       x2="116.83034"
       y2="62.245369"
       id="linearGradient3886"
       xlink:href="#linearGradient3766"
       gradientUnits="userSpaceOnUse"
       gradientTransform="matrix(1.3703203,0,0,1.368674,-145.18677,-84.810916)" />
    <linearGradient
       x1="117.05355"
       y1="83.525589"
       x2="116.83034"
       y2="62.245369"
       id="linearGradient3888"
       xlink:href="#linearGradient3877"
       gradientUnits="userSpaceOnUse"
       gradientTransform="matrix(1.3703203,0,0,1.368674,-145.18677,-84.810916)" />
  </defs>
  <metadata
     id="metadata3859">
    <rdf:RDF>
      <cc:Work
         rdf:about="">
        <dc:format>image/svg+xml</dc:format>
        <dc:type
           rdf:resource="http://purl.org/dc/dcmitype/StillImage" />
        <dc:title />
      </cc:Work>
    </rdf:RDF>
  </metadata>
  <path
     d="m 28.672618,14.993082 a 13.672615,13.656189 0 1 1 -27.3452211,0 13.672615,13.656189 0 1 1 27.3452211,0 z"
     id="path2996"
     style="fill:#1e96f3;fill-opacity:1;stroke:#1e96f3;stroke-width:2.65318;stroke-linecap:round;stroke-linejoin:miter;stroke-miterlimit:4;stroke-dasharray:none;stroke-opacity:1" />
  <path
     d="m 9.5580175,7.5732993 -0.099748,0.099496 0.4002627,1.9987907 0.9005498,0.099499 c 4.787904,-5.7744288 9.8562,-0.2122447 5.11512,4.482488 -1.583528,1.568004 -1.988942,3.251479 -2.001214,5.296815 0,0.183245 0.690803,0.399789 0.900546,0.399789 0.209743,0 0.800501,-0.216745 0.800501,-0.399789 -0.266142,-1.777396 0.579933,-3.07588 1.600952,-4.097551 3.322398,-3.32445 4.852905,-6.7062485 1.923018,-9.1284006 C 17.023867,4.609739 13.099761,4.3249971 9.5580925,7.5729003 Z"
     id="path3836"
     style="font-style:normal;font-variant:normal;font-weight:bold;font-stretch:normal;font-size:8.18743px;line-height:125%;font-family:'Linux Biolinum O';-inkscape-font-specification:'Linux Biolinum O Bold';letter-spacing:0.372156px;word-spacing:0px;fill:#ffffff;fill-opacity:1;stroke:#ffffff;stroke-width:1.06127;stroke-miterlimit:4;stroke-dasharray:none" />
  <path
     d="m 14.733459,22.529025 c -0.825949,0.325638 -1.210735,0.775074 -1.493278,1.491478 v 0.083 c 0.238994,0.911798 0.602131,1.296138 1.493278,1.491506 h 0.165996 c 0.782503,-0.195494 1.189014,-0.601405 1.493306,-1.491506 v -0.083 c -0.282567,-0.781527 -0.689105,-1.209262 -1.493306,-1.491478 z"
     id="text3774"
     style="font-style:normal;font-variant:normal;font-weight:bold;font-stretch:normal;font-size:8.18743px;line-height:125%;font-family:'Linux Biolinum O';-inkscape-font-specification:'Linux Biolinum O Bold';letter-spacing:0.372156px;word-spacing:0px;fill:#ffffff;fill-opacity:1;stroke:#ffffff;stroke-width:1.06127;stroke-miterlimit:4;stroke-dasharray:none" />
</svg>
